C:\Users\Pierre\Documents\Cours\J2EE\SempicRDF\src\main\java\fr\uga\miashs\sempic\rdf\RDFStore.java
C:\Users\Pierre\Documents\Cours\J2EE\SempicRDF\src\main\java\fr\uga\miashs\sempic\rdf\PhotoStore.java
C:\Users\Pierre\Documents\Cours\J2EE\SempicRDF\src\main\java\fr\uga\miashs\sempic\rdf\Namespaces.java
C:\Users\Pierre\Documents\Cours\J2EE\SempicRDF\src\main\java\fr\uga\miashs\sempic\rdf\AlbumStore.java
C:\Users\Pierre\Documents\Cours\J2EE\SempicRDF\src\main\java\fr\uga\miashs\sempic\rdf\GenericStore.java
C:\Users\Pierre\Documents\Cours\J2EE\SempicRDF\src\main\java\fr\uga\miashs\sempic\rdf\TestsRDF.java
C:\Users\Pierre\Documents\Cours\J2EE\SempicRDF\src\main\java\fr\uga\miashs\sempic\rdf\UserStore.java
C:\Users\Pierre\Documents\Cours\J2EE\SempicRDF\target\generated-sources\java\fr\uga\miashs\sempic\model\rdf\SempicOnto.java
